<?xml version="1.0" encoding="UTF-8"?>
<testng-results skipped="0" failed="0" ignored="0" total="9" passed="9">
  <reporter-output>
  </reporter-output>
  <suite name="Command line suite" duration-ms="41975" started-at="2020-01-23T19:56:01 MSK" finished-at="2020-01-23T19:56:43 MSK">
    <groups>
    </groups>
    <test name="Command line test" duration-ms="41975" started-at="2020-01-23T19:56:01 MSK" finished-at="2020-01-23T19:56:43 MSK">
      <class name="by.career.itstep.TestVacancyAPI">
        <test-method status="PASS" signature="testCreateVacancyIfNotValid()[pri:0, instance:by.career.itstep.TestVacancyAPI@1e127982]" name="testCreateVacancyIfNotValid" duration-ms="161" started-at="2020-01-23T19:56:43 MSK" finished-at="2020-01-23T19:56:43 MSK">
          <reporter-output>
          </reporter-output>
        </test-method> <!-- testCreateVacancyIfNotValid -->
        <test-method status="PASS" signature="testCreateVacancy_happyPath()[pri:0, instance:by.career.itstep.TestVacancyAPI@1e127982]" name="testCreateVacancy_happyPath" duration-ms="102" started-at="2020-01-23T19:56:43 MSK" finished-at="2020-01-23T19:56:43 MSK">
          <reporter-output>
          </reporter-output>
        </test-method> <!-- testCreateVacancy_happyPath -->
        <test-method status="PASS" signature="testFindVacancyByID_happyPath()[pri:0, instance:by.career.itstep.TestVacancyAPI@1e127982]" name="testFindVacancyByID_happyPath" duration-ms="116" started-at="2020-01-23T19:56:43 MSK" finished-at="2020-01-23T19:56:43 MSK">
          <reporter-output>
          </reporter-output>
        </test-method> <!-- testFindVacancyByID_happyPath -->
      </class> <!-- by.career.itstep.TestVacancyAPI -->
      <class name="by.career.itstep.TestEventAPI">
        <test-method status="PASS" signature="testFindAllEvents_HappyPath()[pri:0, instance:by.career.itstep.TestEventAPI@7e0b0338]" name="testFindAllEvents_HappyPath" duration-ms="2869" started-at="2020-01-23T19:56:01 MSK" finished-at="2020-01-23T19:56:04 MSK">
          <reporter-output>
          </reporter-output>
        </test-method> <!-- testFindAllEvents_HappyPath -->
        <test-method status="PASS" signature="testFindEventByIDIFNotExist()[pri:0, instance:by.career.itstep.TestEventAPI@7e0b0338]" name="testFindEventByIDIFNotExist" duration-ms="117" started-at="2020-01-23T19:56:04 MSK" finished-at="2020-01-23T19:56:04 MSK">
          <reporter-output>
          </reporter-output>
        </test-method> <!-- testFindEventByIDIFNotExist -->
        <test-method status="PASS" signature="testFindEventByID_HappyPath()[pri:0, instance:by.career.itstep.TestEventAPI@7e0b0338]" name="testFindEventByID_HappyPath" duration-ms="779" started-at="2020-01-23T19:56:04 MSK" finished-at="2020-01-23T19:56:05 MSK">
          <reporter-output>
          </reporter-output>
        </test-method> <!-- testFindEventByID_HappyPath -->
      </class> <!-- by.career.itstep.TestEventAPI -->
      <class name="by.career.itstep.TestMainPage">
        <test-method status="PASS" signature="setUp()[pri:0, instance:by.career.itstep.TestMainPage@617faa95]" name="setUp" is-config="true" duration-ms="15826" started-at="2020-01-23T19:56:05 MSK" finished-at="2020-01-23T19:56:21 MSK">
          <reporter-output>
          </reporter-output>
        </test-method> <!-- setUp -->
        <test-method status="PASS" signature="test()[pri:0, instance:by.career.itstep.TestMainPage@617faa95]" name="test" duration-ms="7737" started-at="2020-01-23T19:56:21 MSK" finished-at="2020-01-23T19:56:28 MSK">
          <reporter-output>
          </reporter-output>
        </test-method> <!-- test -->
        <test-method status="PASS" signature="testConsultationModal()[pri:0, instance:by.career.itstep.TestMainPage@617faa95]" name="testConsultationModal" duration-ms="5656" started-at="2020-01-23T19:56:28 MSK" finished-at="2020-01-23T19:56:34 MSK">
          <reporter-output>
          </reporter-output>
        </test-method> <!-- testConsultationModal -->
        <test-method status="PASS" signature="testFillConsultationModal_happyPath()[pri:0, instance:by.career.itstep.TestMainPage@617faa95]" name="testFillConsultationModal_happyPath" duration-ms="7918" started-at="2020-01-23T19:56:34 MSK" finished-at="2020-01-23T19:56:42 MSK">
          <reporter-output>
          </reporter-output>
        </test-method> <!-- testFillConsultationModal_happyPath -->
        <test-method status="PASS" signature="shutDown()[pri:0, instance:by.career.itstep.TestMainPage@617faa95]" name="shutDown" is-config="true" duration-ms="623" started-at="2020-01-23T19:56:42 MSK" finished-at="2020-01-23T19:56:43 MSK">
          <reporter-output>
          </reporter-output>
        </test-method> <!-- shutDown -->
      </class> <!-- by.career.itstep.TestMainPage -->
    </test> <!-- Command line test -->
  </suite> <!-- Command line suite -->
</testng-results>
